{
  "project_info": {
    "project_number": "799878888418",
    "project_id": "pokemon-nediar",
    "storage_bucket": "pokemon-nediar.appspot.com"
  },
  "client": [
    {
      "client_info": {
        "mobilesdk_app_id": "1:799878888418:android:3a07e4fb6922201b5717bb",
        "android_client_info": {
          "package_name": "com.HectorCarmona.PokemonNediar"
        }
      },
      "oauth_client": [
        {
          "client_id": "799878888418-nm8tjqrulksiq6n4i6uo4nt4ggodkff9.apps.googleusercontent.com",
          "client_type": 3
        }
      ],
      "api_key": [
        {
          "current_key": "AIzaSyBYCg18wgv4D-VZUcs5XiNzgUveRZHL46E"
        }
      ],
      "services": {
        "appinvite_service": {
          "other_platform_oauth_client": [
            {
              "client_id": "799878888418-nm8tjqrulksiq6n4i6uo4nt4ggodkff9.apps.googleusercontent.com",
              "client_type": 3
            }
          ]
        }
      }
    }
  ],
  "configuration_version": "1"
}